…
So the data now looks like so:

```r
tfa_out_tidy
```

<p></p>

```
## # A tibble: 21,328 x 4
##    Event Character          Score Label      
##    <int> <chr>              <dbl> <chr>      
##  1     1 Lor San Tekka     0.0326 <NA>       
##  2     1 Poe Dameron       0.0322 Poe Dameron
##  3     1 Kylo Ren          0.0322 Kylo Ren   
##  4     1 Captain Phasma    0.0322 <NA>       
##  5     1 Finn              0.0322 Finn       
##  6     1 Unkar             0.0322 <NA>       
##  7     1 Rey               0.0322 Rey        
##  8     1 General Hux       0.0322 <NA>       
##  9     1 Lieutenant Mitaka 0.0322 <NA>       
## 10     1 Han Solo          0.0322 Han Solo   
## # ... with 21,318 more rows
```
…
